{
	"items": [
		{
			"key": "app_name",
			"value": "Детский телефон"
		},
		{
			"key": "bear",
			"value": "Медвежонок"
		},
		{
			"key": "cat",
			"value": "Котик"
		},
		{
			"key": "cow",
			"value": "Корова"
		},
		{
			"key": "dog",
			"value": "Собачка"
		},
		{
			"key": "lion",
			"value": "Львёнок"
		},
		{
			"key": "monkey",
			"value": "Обезьяна"
		},
		{
			"key": "owl",
			"value": "Сова"
		},
		{
			"key": "pig",
			"value": "Поросёнок"
		},
		{
			"key": "raccoon",
			"value": "Енот"
		},
		{
			"key": "ram",
			"value": "Барашек"
		},
		{
			"key": "fox",
			"value": "Лисичка"
		},
		{
			"key": "frog",
			"value": "Лягушка"
		},
		{
			"key": "light_blue",
			"value": "Голубой"
		},
		{
			"key": "red",
			"value": "Красный"
		},
		{
			"key": "green",
			"value": "Зелёный"
		},
		{
			"key": "dark_blue",
			"value": "Синий"
		},
		{
			"key": "orange",
			"value": "Оранжевый"
		},
		{
			"key": "purple",
			"value": "Фиолетовый"
		},
		{
			"key": "brown",
			"value": "Коричневый"
		},
		{
			"key": "black",
			"value": "Чёрный"
		},
		{
			"key": "yellow",
			"value": "Жёлтый"
		},
		{
			"key": "pink",
			"value": "Розовый"
		},
		{
			"key": "remove_ads_purchase",
			"value": "remove_ads"
		},
		{
			"key": "purchase_error",
			"value": "Ошибка выполнения операции"
		},
		{
			"key": "remove_ads_label",
			"value": "убрать\nрекламу"
		},
		{
			"key": "voice_recording",
			"value": "Запись голоса"
		},
		{
			"key": "outgoing_call",
			"value": "Вызов..."
		}
	]
}
