%YAML 1.1
%TAG !u! tag:unity3d.com,2011:
--- !u!1045 &1
EditorBuildSettings:
  m_ObjectHideFlags: 0
  serializedVersion: 2
  m_Scenes:
  - enabled: 1
    path: Assets/child_phone_scene.unity
    guid: 8f925d265bc49954f9164daf25682f5c
  m_configObjects: {}
