{
	"items": [
		{
			"key": "app_name",
			"value": "Telefono per bambini"
		},
		{
			"key": "dog",
			"value": "cagnolino"
		},
		{
			"key": "cow",
			"value": "mucca"
		},
		{
			"key": "cat",
			"value": "gattino"
		},
		{
			"key": "monkey",
			"value": "scimmia"
		},
		{
			"key": "fox",
			"value": "volpe"
		},
		{
			"key": "frog",
			"value": "ranocchia"
		},
		{
			"key": "owl",
			"value": "gufo"
		},
		{
			"key": "bear",
			"value": "orsetto"
		},
		{
			"key": "lion",
			"value": "leoncino"
		},
		{
			"key": "pig",
			"value": "maialino"
		},
		{
			"key": "raccoon",
			"value": "procione"
		},
		{
			"key": "ram",
			"value": "agnello"
		},
		{
			"key": "light_blue",
			"value": "Azzurro"
		},
		{
			"key": "red",
			"value": "Rosso"
		},
		{
			"key": "green",
			"value": "Verde"
		},
		{
			"key": "dark_blue",
			"value": "Blu"
		},
		{
			"key": "orange",
			"value": "Arancione"
		},
		{
			"key": "purple",
			"value": "Porpora"
		},
		{
			"key": "brown",
			"value": "Marrone"
		},
		{
			"key": "black",
			"value": "Nero"
		},
		{
			"key": "yellow",
			"value": "Giallo"
		},
		{
			"key": "pink",
			"value": "Rosa"
		},
		{
			"key": "remove_ads_purchase",
			"value": "remove_ads"
		},
		{
			"key": "remove_ads_label",
			"value": "rimuovere gli annunci"
		},
		{
			"key": "voice_recording",
			"value": "registrazione vocale"
		},
		{
			"key": "outgoing_call",
			"value": "chiamata in uscita"
		}
	]
}
